rendr
…
(sol <- rre(model))
#> # A tibble: 100 x 5
#>     Time     S     E    SE      P
#>    <dbl> <dbl> <dbl> <dbl>  <dbl>
#>  1 0      301  120     0    0    
#>  2 0.303  285. 104.   16.2  0.255
#>  3 0.606  271.  90.9  29.1  0.947
#>  4 0.909  260.  80.6  39.4  1.99 
#>  5 1.21   250.  72.1  47.9  3.32 
#>  6 1.52   241.  65.2  54.8  4.88 
#>  7 1.82   234.  59.5  60.5  6.62 
#>  8 2.12   227.  54.8  65.2  8.53 
#>  9 2.42   221.  50.9  69.1 10.6  
#> 10 2.73   216.  47.6  72.4 12.7  
#> #  with 90 more rows
…
    T = 3.5
))
#> $network
#> # Reaction network: 4 reactions x 2 species
#>     Reactants    Products     Rate
#> 1           0 -> U             4e3
#> 2           U -> 0               2
#> 3           0 -> V           1.2e4
#> 4      2U + V -> 3U        12.5e-8
#> 
#> $volume
#> # dims: 40 x 1 x 1
#> # h: 0.025
#> # states: 
#> # # A tibble: 40 x 5
#>       x     y     z     U     V
#>   <int> <int> <int> <dbl> <dbl>
#> 1     1     1     1    25    75
#> 2     2     1     1    25    75
#> 3     3     1     1    25    75
#> 4     4     1     1    25    75
#> 5     5     1     1    25    75
#> #  with 35 more rows
…
